{
    "key": "group_5b2bf07ce4e77",
    "title": "Component Form",
    "fields": [
        {
            "key": "field_5b2bf09aa5b5b",
            "label": "Form",
            "name": "cf_form",
            "type": "forms",
            "instructions": "",
            "required": 0,
            "conditional_logic": 0,
            "wrapper": {
                "width": "",
                "class": "",
                "id": ""
            },
            "return_format": "post_object",
            "allow_null": 0,
            "multiple": 0
        },
        {
            "key": "field_5b2d3b87a6ccb",
            "label": "Form Button Theme",
            "name": "cf_form_button_theme",
            "type": "button_group",
            "instructions": "",
            "required": 1,
            "conditional_logic": 0,
            "wrapper": {
                "width": "",
                "class": "",
                "id": ""
            },
            "choices": {
                "theme-primary": "Primary",
                "theme-secondary": "Secondary"
            },
            "allow_null": 0,
            "default_value": "theme-light",
            "layout": "horizontal",
            "return_format": "value"
        }
    ],
    "location": [
        [
            {
                "param": "post_type",
                "operator": "==",
                "value": "post"
            }
        ]
    ],
    "menu_order": 0,
    "position": "normal",
    "style": "default",
    "label_placement": "top",
    "instruction_placement": "label",
    "hide_on_screen": "",
    "active": 0,
    "description": "",
    "modified": 1543472211
}