{
    "key": "group_5bab0e925f048",
    "title": "Component Icon",
    "fields": [
        {
            "key": "field_5bab0e9b2c85b",
            "label": "Icon",
            "name": "ci_icon",
            "type": "select",
            "instructions": "",
            "required": 0,
            "conditional_logic": 0,
            "wrapper": {
                "width": "",
                "class": "",
                "id": ""
            },
            "choices": {
                "angle-down": "<i class=\"licon licon-angle-right\"><\/i>Angle Down",
                "angle-left": "<i class=\"licon licon-angle-right\"><\/i>Angle Left",
                "angle-right": "<i class=\"licon licon-angle-right\"><\/i>Angle Right",
                "angle-up": "<i class=\"licon licon-angle-right\"><\/i>Angle Up",
                "arrow-down": "<i class=\"licon licon-angle-right\"><\/i>Arrow Down",
                "arrow-left": "<i class=\"licon licon-angle-right\"><\/i>Arrow Left",
                "arrow-right": "<i class=\"licon licon-angle-right\"><\/i>Arrow Right",
                "arrow-up": "<i class=\"licon licon-angle-right\"><\/i>Arrow Up",
                "checkmark": "<i class=\"licon licon-angle-right\"><\/i>Checkmark",
                "cross": "<i class=\"licon licon-angle-right\"><\/i>Cross",
                "download": "<i class=\"licon licon-angle-right\"><\/i>Download",
                "facebook": "<i class=\"licon licon-angle-right\"><\/i>Facebook",
                "file-download": "<i class=\"licon licon-angle-right\"><\/i>File Download",
                "file-pdf": "<i class=\"licon licon-angle-right\"><\/i>File Pdf",
                "file-text": "<i class=\"licon licon-angle-right\"><\/i>File Text",
                "file-word": "<i class=\"licon licon-angle-right\"><\/i>File Word",
                "file-zip": "<i class=\"licon licon-angle-right\"><\/i>File Zip",
                "google": "<i class=\"licon licon-angle-right\"><\/i>Google",
                "instagram": "<i class=\"licon licon-angle-right\"><\/i>Instagram",
                "letter": "<i class=\"licon licon-angle-right\"><\/i>Letter",
                "linkedin": "<i class=\"licon licon-angle-right\"><\/i>Linkedin",
                "marker": "<i class=\"licon licon-angle-right\"><\/i>Marker",
                "phone": "<i class=\"licon licon-angle-right\"><\/i>Phone",
                "pinterest": "<i class=\"licon licon-angle-right\"><\/i>Pinterest",
                "search": "<i class=\"licon licon-angle-right\"><\/i>Search",
                "shopping-bag": "<i class=\"licon licon-angle-right\"><\/i>Shopping Bag",
                "spinner": "<i class=\"licon licon-angle-right\"><\/i>Spinner",
                "twitter": "<i class=\"licon licon-angle-right\"><\/i>Twitter",
                "youtube": "<i class=\"licon licon-angle-right\"><\/i>Youtube"
            },
            "default_value": [],
            "allow_null": 0,
            "multiple": 0,
            "ui": 1,
            "ajax": 0,
            "return_format": "value",
            "placeholder": ""
        }
    ],
    "location": [
        [
            {
                "param": "post_type",
                "operator": "==",
                "value": "post"
            }
        ]
    ],
    "menu_order": 0,
    "position": "normal",
    "style": "default",
    "label_placement": "top",
    "instruction_placement": "label",
    "hide_on_screen": "",
    "active": 0,
    "description": "",
    "modified": 1537937889
}