<?xml version="1.0" encoding="utf-8"?>
<!-- Generator: Adobe Illustrator 17.0.0, SVG Export Plug-In . SVG Version: 6.00 Build 0)  -->
<!DOCTYPE svg PUBLIC "-//W3C//DTD SVG 1.1//EN" "http://www.w3.org/Graphics/SVG/1.1/DTD/svg11.dtd">
<svg version="1.1" id="Layer_1" xmlns="http://www.w3.org/2000/svg" xmlns:xlink="http://www.w3.org/1999/xlink" x="0px" y="0px"
	 width="100px" height="100px" viewBox="0 0 100 100" enable-background="new 0 0 100 100" xml:space="preserve">
<g>
	<path id="YouTube" fill="#010101" d="M78.82,73.15h-5.49l0.03-3.19c0-1.42,1.16-2.58,2.58-2.58h0.35c1.42,0,2.59,1.16,2.59,2.58
		L78.82,73.15z M58.24,66.32c-1.39,0-2.53,0.94-2.53,2.08v15.5c0,1.14,1.14,2.08,2.53,2.08c1.4,0,2.54-0.93,2.54-2.08V68.4
		C60.77,67.25,59.63,66.32,58.24,66.32z M91.67,57.64v29.49c0,7.07-6.13,12.86-13.63,12.86H21.97c-7.5,0-13.63-5.79-13.63-12.86
		V57.64c0-7.07,6.13-12.86,13.63-12.86h56.07C85.53,44.78,91.67,50.57,91.67,57.64z M25.71,90.34l0-31.07l6.95,0v-4.6l-18.53-0.03
		v4.53l5.78,0.02v31.15H25.71z M46.54,63.9h-5.79v16.59c0,2.4,0.15,3.6-0.01,4.02c-0.47,1.29-2.59,2.65-3.41,0.14
		c-0.14-0.44-0.02-1.77-0.02-4.05l-0.02-16.7h-5.76l0.02,16.44c0,2.52-0.06,4.4,0.02,5.25c0.14,1.51,0.09,3.27,1.49,4.27
		c2.61,1.88,7.6-0.28,8.85-2.96l-0.01,3.43l4.65,0.01L46.54,63.9L46.54,63.9z M65.08,82.9l-0.01-13.81c0-5.26-3.94-8.41-9.28-4.16
		l0.02-10.27l-5.79,0.01l-0.03,35.43l4.76-0.07l0.43-2.21C61.26,93.41,65.09,89.59,65.08,82.9z M83.21,81.07l-4.34,0.02
		c0,0.17-0.01,0.37-0.01,0.59v2.42c0,1.3-1.07,2.35-2.37,2.35h-0.85c-1.3,0-2.38-1.06-2.38-2.35v-0.27v-2.67v-3.44h9.95v-3.74
		c0-2.74-0.07-5.47-0.3-7.04c-0.71-4.95-7.66-5.73-11.17-3.2c-1.1,0.79-1.94,1.85-2.43,3.27c-0.49,1.42-0.74,3.37-0.74,5.84v8.23
		C68.57,94.77,85.2,92.84,83.21,81.07z M60.93,36.37c0.3,0.73,0.76,1.32,1.39,1.76c0.62,0.44,1.42,0.66,2.37,0.66
		c0.84,0,1.58-0.23,2.22-0.69c0.64-0.46,1.18-1.16,1.63-2.08l-0.11,2.27h6.46V10.82H69.8V32.2c0,1.16-0.95,2.11-2.12,2.11
		c-1.16,0-2.12-0.95-2.12-2.11V10.82h-5.31v18.53c0,2.36,0.04,3.93,0.11,4.73C60.44,34.87,60.63,35.63,60.93,36.37z M41.35,20.86
		c0-2.64,0.22-4.7,0.66-6.18c0.44-1.48,1.23-2.67,2.37-3.56c1.14-0.9,2.6-1.35,4.38-1.35c1.49,0,2.77,0.29,3.84,0.87
		c1.07,0.58,1.9,1.33,2.48,2.25c0.59,0.93,0.98,1.88,1.2,2.86c0.22,0.99,0.32,2.48,0.32,4.5v6.95c0,2.55-0.1,4.42-0.3,5.61
		c-0.2,1.19-0.62,2.3-1.27,3.34c-0.64,1.03-1.48,1.79-2.49,2.28c-1.02,0.49-2.19,0.74-3.5,0.74c-1.47,0-2.71-0.2-3.73-0.63
		c-1.03-0.42-1.82-1.06-2.38-1.9c-0.57-0.85-0.97-1.88-1.21-3.08c-0.24-1.2-0.36-3.01-0.36-5.42L41.35,20.86L41.35,20.86z
		 M46.41,31.77c0,1.56,1.16,2.83,2.57,2.83c1.41,0,2.56-1.27,2.56-2.83V17.14c0-1.55-1.15-2.82-2.56-2.82
		c-1.41,0-2.57,1.27-2.57,2.82V31.77z M28.54,39.15h6.09l0.01-21.07l7.2-18.05h-6.66l-3.83,13.4L27.46,0h-6.6l7.66,18.09
		L28.54,39.15z"/>
</g>
</svg>
