<?xml version="1.0" encoding="utf-8"?>
<!-- Generator: Adobe Illustrator 17.0.0, SVG Export Plug-In . SVG Version: 6.00 Build 0)  -->
<!DOCTYPE svg PUBLIC "-//W3C//DTD SVG 1.1//EN" "http://www.w3.org/Graphics/SVG/1.1/DTD/svg11.dtd">
<svg version="1.1" id="Layer_1" xmlns="http://www.w3.org/2000/svg" xmlns:xlink="http://www.w3.org/1999/xlink" x="0px" y="0px"
	 width="100px" height="100px" viewBox="0 0 100 100" enable-background="new 0 0 100 100" xml:space="preserve">
<g>
	<g>
		<g>
			<path fill="#040305" d="M88.44,27.81C85.71,8.04,66.01-2.02,45,0.34C28.39,2.2,11.82,15.63,11.14,34.84
				c-0.42,11.72,2.91,20.52,14.06,22.99c4.83-8.55-1.56-10.42-2.56-16.61c-4.09-25.31,29.2-42.6,46.64-24.91
				C81.36,28.56,73.4,66.22,53.95,62.3c-18.63-3.74,9.12-33.72-5.74-39.6C36.12,17.91,29.7,37.33,35.43,46.98
				c-3.36,16.59-10.6,32.22-7.67,53.02c9.5-6.9,12.71-20.09,15.33-33.86c4.77,2.91,7.33,5.91,13.42,6.38
				C78.96,74.26,91.52,50.11,88.44,27.81z"/>
		</g>
	</g>
</g>
</svg>
