<?xml version="1.0" encoding="utf-8"?>
<!-- Generator: Adobe Illustrator 17.0.0, SVG Export Plug-In . SVG Version: 6.00 Build 0)  -->
<!DOCTYPE svg PUBLIC "-//W3C//DTD SVG 1.1//EN" "http://www.w3.org/Graphics/SVG/1.1/DTD/svg11.dtd">
<svg version="1.1" id="Layer_1" xmlns="http://www.w3.org/2000/svg" xmlns:xlink="http://www.w3.org/1999/xlink" x="0px" y="0px"
	 width="100px" height="100px" viewBox="0 0 100 100" enable-background="new 0 0 100 100" xml:space="preserve">
<g>
	<path id="Google" fill="#010101" d="M82.78,0H55.72c-7.09,0-16.02,1.05-23.51,7.21c-5.66,4.86-8.41,11.55-8.41,17.59
		c0,10.23,7.88,20.61,21.81,20.61c1.31,0,2.75-0.13,4.21-0.26c-0.66,1.57-1.32,2.88-1.32,5.12c0,4.07,2.1,6.56,3.94,8.92
		c-5.9,0.39-16.94,1.05-25.09,6.03c-7.75,4.6-10.12,11.29-10.12,16.02c0,9.71,9.2,18.77,28.25,18.77c22.6,0,34.55-12.47,34.55-24.81
		c0-9.05-5.25-13.52-11.04-18.37l-4.73-3.67c-1.44-1.18-3.41-2.75-3.41-5.64c0-2.89,1.97-4.73,3.67-6.43
		c5.52-4.33,11.04-8.92,11.04-18.63c0-9.98-6.31-15.23-9.33-17.72h8.15L82.78,0z M71.23,80.31c0,8.14-6.7,14.17-19.32,14.17
		c-14.05,0-23.12-6.69-23.12-16.01c0-9.33,8.41-12.46,11.3-13.52c5.52-1.84,12.61-2.1,13.79-2.1c1.32,0,1.97,0,3.03,0.13
		C66.89,70.07,71.23,73.62,71.23,80.31z M60.71,38.05c-2.1,2.1-5.65,3.67-8.94,3.67c-11.29,0-16.41-14.57-16.41-23.36
		c0-3.41,0.66-6.95,2.89-9.71c2.1-2.62,5.78-4.33,9.2-4.33C58.35,4.32,64,19.02,64,28.47C64,30.84,63.73,35.03,60.71,38.05z"/>
</g>
</svg>
