<?xml version="1.0" encoding="utf-8"?>
<!-- Generator: Adobe Illustrator 17.0.0, SVG Export Plug-In . SVG Version: 6.00 Build 0)  -->
<!DOCTYPE svg PUBLIC "-//W3C//DTD SVG 1.1//EN" "http://www.w3.org/Graphics/SVG/1.1/DTD/svg11.dtd">
<svg version="1.1" id="Layer_1" xmlns="http://www.w3.org/2000/svg" xmlns:xlink="http://www.w3.org/1999/xlink" x="0px" y="0px"
	 width="100px" height="100px" viewBox="0 0 100 100" enable-background="new 0 0 100 100" xml:space="preserve">
<g>
	<g>
		<path fill="#040305" d="M99.95,78.92c0.21,1.62-0.28,3.04-1.48,4.24L84.39,97.14c-0.64,0.71-1.46,1.31-2.49,1.8
			c-1.02,0.49-2.03,0.81-3.02,0.95c-0.07,0-0.28,0.02-0.64,0.05c-0.35,0.04-0.81,0.05-1.38,0.05c-1.34,0-3.51-0.23-6.51-0.69
			c-3-0.46-6.67-1.59-11.01-3.39c-4.34-1.8-9.26-4.5-14.77-8.1c-5.5-3.6-11.36-8.55-17.57-14.83c-4.94-4.87-9.03-9.53-12.28-13.98
			c-3.25-4.45-5.86-8.56-7.83-12.34c-1.98-3.78-3.46-7.2-4.45-10.28s-1.66-5.72-2.01-7.94s-0.49-3.97-0.42-5.24
			c0.07-1.27,0.11-1.98,0.11-2.12c0.14-0.99,0.46-2,0.95-3.02s1.09-1.85,1.8-2.49L16.96,1.48C17.94,0.49,19.07,0,20.34,0
			c0.92,0,1.73,0.26,2.43,0.79s1.31,1.18,1.8,1.96l11.33,21.5c0.64,1.13,0.81,2.37,0.53,3.71c-0.28,1.34-0.88,2.47-1.8,3.39
			l-5.19,5.19c-0.14,0.14-0.26,0.37-0.37,0.69c-0.11,0.32-0.16,0.58-0.16,0.79c0.28,1.48,0.92,3.18,1.91,5.08
			c0.85,1.69,2.15,3.76,3.92,6.2c1.76,2.44,4.27,5.24,7.52,8.42c3.18,3.25,6,5.77,8.47,7.57c2.47,1.8,4.53,3.12,6.19,3.97
			c1.66,0.85,2.93,1.36,3.81,1.54l1.32,0.26c0.14,0,0.37-0.05,0.69-0.16c0.32-0.11,0.55-0.23,0.69-0.37l6.03-6.14
			c1.27-1.13,2.75-1.69,4.45-1.69c1.2,0,2.15,0.21,2.86,0.64h0.11l20.43,12.08C98.79,76.34,99.67,77.51,99.95,78.92z"/>
	</g>
</g>
</svg>
