<?xml version="1.0" encoding="utf-8"?>
<!-- Generator: Adobe Illustrator 17.0.0, SVG Export Plug-In . SVG Version: 6.00 Build 0)  -->
<!DOCTYPE svg PUBLIC "-//W3C//DTD SVG 1.1//EN" "http://www.w3.org/Graphics/SVG/1.1/DTD/svg11.dtd">
<svg version="1.1" id="Layer_1" xmlns="http://www.w3.org/2000/svg" xmlns:xlink="http://www.w3.org/1999/xlink" x="0px" y="0px"
	 width="100px" height="100px" viewBox="0 0 100 100" enable-background="new 0 0 100 100" xml:space="preserve">
<path fill="#010101" d="M98.05,78.8L100,96.27c0.11,1.04-0.19,1.97-0.89,2.79c-0.71,0.78-1.6,1.17-2.68,1.17H3.57
	c-1.08,0-1.97-0.39-2.68-1.17c-0.71-0.82-1-1.75-0.89-2.79L1.95,78.8H98.05z M92.86,31.98l4.8,43.25H2.34l4.8-43.25
	c0.11-0.89,0.5-1.65,1.17-2.26c0.67-0.61,1.47-0.92,2.4-0.92H25v7.14c0,1.97,0.7,3.66,2.09,5.05c1.4,1.4,3.08,2.09,5.05,2.09
	s3.66-0.7,5.05-2.09c1.4-1.4,2.09-3.08,2.09-5.05V28.8h21.43v7.14c0,1.97,0.7,3.66,2.09,5.05c1.4,1.4,3.08,2.09,5.05,2.09
	c1.97,0,3.66-0.7,5.05-2.09c1.4-1.4,2.09-3.08,2.09-5.05V28.8h14.29c0.93,0,1.73,0.31,2.4,0.92C92.35,30.33,92.75,31.09,92.86,31.98
	z M71.43,21.66v14.29c0,0.97-0.35,1.8-1.06,2.51c-0.71,0.71-1.54,1.06-2.51,1.06c-0.97,0-1.8-0.35-2.51-1.06
	c-0.71-0.71-1.06-1.54-1.06-2.51V21.66c0-3.94-1.4-7.31-4.19-10.1C57.31,8.77,53.94,7.37,50,7.37s-7.31,1.4-10.1,4.19
	c-2.79,2.79-4.19,6.16-4.19,10.1v14.29c0,0.97-0.35,1.8-1.06,2.51c-0.71,0.71-1.54,1.06-2.51,1.06c-0.97,0-1.8-0.35-2.51-1.06
	c-0.71-0.71-1.06-1.54-1.06-2.51V21.66c0-5.92,2.09-10.97,6.28-15.15S44.08,0.23,50,0.23s10.97,2.09,15.15,6.28
	C69.34,10.69,71.43,15.74,71.43,21.66z"/>
</svg>
