{
    "key": "group_5bfd26b0eaca5",
    "title": "Posttype Page",
    "fields": [
        {
            "key": "field_5bfd26b10c196",
            "label": "Code Snippets",
            "name": "",
            "type": "tab",
            "instructions": "",
            "required": 0,
            "conditional_logic": 0,
            "wrapper": {
                "width": "",
                "class": "",
                "id": ""
            },
            "placement": "left",
            "endpoint": 0
        },
        {
            "key": "field_5bfd26b10c228",
            "label": "Code Snippets",
            "name": "code_snippets",
            "type": "clone",
            "instructions": "Add page specific tags here. For code snippets which are to appear on all pages, add to Theme Settings.",
            "required": 0,
            "conditional_logic": 0,
            "wrapper": {
                "width": "",
                "class": "",
                "id": ""
            },
            "clone": [
                "group_5875798d7ec18"
            ],
            "display": "group",
            "layout": "row",
            "prefix_label": 0,
            "prefix_name": 0
        }
    ],
    "location": [
        [
            {
                "param": "post_type",
                "operator": "==",
                "value": "page"
            }
        ]
    ],
    "menu_order": 0,
    "position": "normal",
    "style": "default",
    "label_placement": "top",
    "instruction_placement": "label",
    "hide_on_screen": "",
    "active": true,
    "description": "",
    "modified": 1634700157
}