<?xml version="1.0" encoding="utf-8"?>
<!-- Generator: Adobe Illustrator 17.0.0, SVG Export Plug-In . SVG Version: 6.00 Build 0)  -->
<!DOCTYPE svg PUBLIC "-//W3C//DTD SVG 1.1//EN" "http://www.w3.org/Graphics/SVG/1.1/DTD/svg11.dtd">
<svg version="1.1" id="Layer_1" xmlns="http://www.w3.org/2000/svg" xmlns:xlink="http://www.w3.org/1999/xlink" x="0px" y="0px"
	 width="100px" height="100px" viewBox="0 0 100 100" enable-background="new 0 0 100 100" xml:space="preserve">
<path fill="#010101" d="M89.06,21.21c1.04,1.04,1.93,2.46,2.68,4.24c0.74,1.79,1.12,3.42,1.12,4.91v64.29
	c0,1.49-0.52,2.75-1.56,3.79S88.99,100,87.5,100h-75c-1.49,0-2.75-0.52-3.79-1.56s-1.56-2.31-1.56-3.79V5.36
	c0-1.49,0.52-2.75,1.56-3.79S11.01,0,12.5,0h50c1.49,0,3.13,0.37,4.91,1.12s3.2,1.64,4.24,2.68L89.06,21.21z M64.29,7.59v20.98
	h20.98c-0.37-1.08-0.78-1.84-1.23-2.29L66.57,8.82C66.13,8.37,65.36,7.96,64.29,7.59z M85.71,92.86V35.71H62.5
	c-1.49,0-2.75-0.52-3.79-1.56c-1.04-1.04-1.56-2.31-1.56-3.79V7.14H14.29v85.71H85.71z M57.03,59.77c1.23,0.97,2.79,2.01,4.69,3.13
	c2.19-0.26,4.37-0.39,6.53-0.39c5.47,0,8.76,0.91,9.88,2.73c0.6,0.82,0.63,1.79,0.11,2.9c0,0.04-0.02,0.07-0.06,0.11l-0.11,0.11
	v0.06c-0.22,1.41-1.54,2.12-3.96,2.12c-1.79,0-3.92-0.37-6.42-1.12c-2.49-0.74-4.91-1.73-7.25-2.96
	c-8.22,0.89-15.51,2.44-21.88,4.63c-5.69,9.75-10.19,14.62-13.5,14.62c-0.56,0-1.08-0.13-1.56-0.39l-1.34-0.67
	c-0.04-0.04-0.15-0.13-0.33-0.28c-0.37-0.37-0.48-1.04-0.33-2.01c0.33-1.49,1.38-3.19,3.13-5.11c1.75-1.92,4.2-3.71,7.37-5.39
	c0.52-0.33,0.95-0.22,1.28,0.33c0.07,0.07,0.11,0.15,0.11,0.22c1.93-3.16,3.92-6.83,5.97-10.99c2.53-5.06,4.46-9.93,5.8-14.62
	c-0.89-3.05-1.46-6.02-1.7-8.9s-0.12-5.25,0.36-7.11c0.41-1.49,1.19-2.23,2.34-2.23h1.23c0.86,0,1.51,0.28,1.95,0.84
	c0.67,0.78,0.84,2.05,0.5,3.79c-0.07,0.22-0.15,0.37-0.22,0.45c0.04,0.11,0.06,0.26,0.06,0.45v1.67c-0.07,4.58-0.33,8.15-0.78,10.71
	C50.93,52.59,53.65,57.01,57.03,59.77z M24.89,82.7c1.93-0.89,4.48-3.83,7.65-8.82c-1.9,1.49-3.52,3.05-4.88,4.69
	C26.29,80.21,25.37,81.58,24.89,82.7z M47.1,31.36c-0.56,1.56-0.6,4.02-0.11,7.37c0.04-0.26,0.17-1.08,0.39-2.46
	c0-0.11,0.13-0.91,0.39-2.4c0.04-0.15,0.11-0.3,0.22-0.45c-0.04-0.04-0.06-0.07-0.06-0.11s-0.01-0.07-0.03-0.08
	s-0.03-0.05-0.03-0.08c-0.04-0.82-0.28-1.49-0.73-2.01c0,0.04-0.02,0.07-0.06,0.11V31.36z M40.18,68.25
	c5.02-2.01,10.31-3.52,15.85-4.52c-0.07-0.04-0.32-0.21-0.73-0.53s-0.71-0.57-0.89-0.75c-2.83-2.49-5.19-5.77-7.09-9.82
	c-1,3.2-2.55,6.86-4.63,10.99C41.57,65.7,40.74,67.24,40.18,68.25z M76.23,67.35c-0.89-0.89-3.5-1.34-7.81-1.34
	c2.83,1.04,5.13,1.56,6.92,1.56c0.52,0,0.86-0.02,1-0.06C76.34,67.49,76.3,67.43,76.23,67.35z"/>
</svg>
