<?xml version="1.0" encoding="utf-8"?>
<!-- Generator: Adobe Illustrator 17.0.0, SVG Export Plug-In . SVG Version: 6.00 Build 0)  -->
<!DOCTYPE svg PUBLIC "-//W3C//DTD SVG 1.1//EN" "http://www.w3.org/Graphics/SVG/1.1/DTD/svg11.dtd">
<svg version="1.1" id="Layer_1" xmlns="http://www.w3.org/2000/svg" xmlns:xlink="http://www.w3.org/1999/xlink" x="0px" y="0px"
	 width="100px" height="100px" viewBox="0 0 100 100" enable-background="new 0 0 100 100" xml:space="preserve">
<path fill="#010101" d="M89.06,21.21c1.04,1.04,1.93,2.46,2.68,4.24c0.74,1.79,1.12,3.42,1.12,4.91v64.29
	c0,1.49-0.52,2.75-1.56,3.79S88.99,100,87.5,100h-75c-1.49,0-2.75-0.52-3.79-1.56s-1.56-2.31-1.56-3.79V5.36
	c0-1.49,0.52-2.75,1.56-3.79S11.01,0,12.5,0h50c1.49,0,3.13,0.37,4.91,1.12s3.2,1.64,4.24,2.68L89.06,21.21z M64.29,7.59v20.98
	h20.98c-0.37-1.08-0.78-1.84-1.23-2.29L66.57,8.82C66.13,8.37,65.36,7.96,64.29,7.59z M85.71,92.86V35.71H62.5
	c-1.49,0-2.75-0.52-3.79-1.56s-1.56-2.31-1.56-3.79V7.14H14.29v85.71H85.71z M20.15,42.86v5.97h3.91l9.15,36.89h8.87l7.14-27.06
	c0.26-0.74,0.45-1.6,0.56-2.57c0.07-0.6,0.11-1.04,0.11-1.34h0.22l0.17,1.34c0.04,0.11,0.1,0.48,0.2,1.12
	c0.09,0.63,0.2,1.12,0.31,1.45l7.14,27.06h8.87l9.15-36.89h3.91v-5.97H63.11v5.97h5.02l-5.52,24.44c-0.19,0.74-0.32,1.6-0.39,2.57
	l-0.11,1.17h-0.22l-0.17-1.17c-0.04-0.19-0.11-0.58-0.22-1.17c-0.11-0.6-0.2-1.06-0.28-1.4l-8.04-30.41h-6.36l-8.04,30.41
	c-0.07,0.33-0.16,0.79-0.25,1.37c-0.09,0.58-0.16,0.98-0.2,1.2l-0.22,1.17h-0.22l-0.11-1.17c-0.07-0.97-0.2-1.82-0.39-2.57
	l-5.52-24.44h5.02v-5.97H20.15z"/>
</svg>
