<?xml version="1.0" encoding="utf-8"?>
<!-- Generator: Adobe Illustrator 17.0.0, SVG Export Plug-In . SVG Version: 6.00 Build 0)  -->
<!DOCTYPE svg PUBLIC "-//W3C//DTD SVG 1.1//EN" "http://www.w3.org/Graphics/SVG/1.1/DTD/svg11.dtd">
<svg version="1.1" id="Layer_1" xmlns="http://www.w3.org/2000/svg" xmlns:xlink="http://www.w3.org/1999/xlink" x="0px" y="0px"
	 width="100px" height="100px" viewBox="0 0 100 100" enable-background="new 0 0 100 100" xml:space="preserve">
<path fill="#1E211E" d="M52.49,1.06c-1.36-1.41-3.63-1.41-4.99,0l-31.6,31.6c-1.41,1.36-1.41,3.63,0,5.04
	c1.36,1.36,3.63,1.36,5.04,0l25.51-25.55v84.33c0,1.97,1.61,3.53,3.58,3.53c1.97,0,3.53-1.56,3.53-3.53V12.15L79.11,37.7
	c1.36,1.36,3.63,1.36,4.99,0c1.41-1.41,1.41-3.68,0-5.04L52.49,1.06z"/>
</svg>
